%YAML 1.1
%TAG !u! tag:unity3d.com,2011:
--- !u!221 &22100000
AnimatorOverrideController:
  m_ObjectHideFlags: 0
  m_PrefabParentObject: {fileID: 0}
  m_PrefabInternal: {fileID: 0}
  m_Name: enemy strong
  m_Controller: {fileID: 9100000, guid: 4fa6e78ace9fa944a9eca5adf1de855c, type: 2}
  m_Clips:
  - m_OriginalClip: {fileID: 7400000, guid: 25becb6c8351b154a9ce9b010d61f119, type: 2}
    m_OverrideClip: {fileID: 7400000, guid: 0bfe846b981822e4c98bd462fd3b630d, type: 2}
  - m_OriginalClip: {fileID: 7400000, guid: c3f1c545473302647ab6b44f191d3e65, type: 2}
    m_OverrideClip: {fileID: 7400000, guid: 5890da4c92f6a5f4aaaec41d8fa74ba7, type: 2}
